…
-----

# Creating tibbles

Tibbles are essentially data frames with a few nicer functionalities

as\_tibble() is the function that coerces a data frame to a tibble

``` r
as_tibble(iris)
```

    ## # A tibble: 150 x 5
    ##    Sepal.Length Sepal.Width Petal.Length Petal.Width Species
    ##           <dbl>       <dbl>        <dbl>       <dbl> <fct>  
    ##  1          5.1         3.5          1.4         0.2 setosa 
    ##  2          4.9         3            1.4         0.2 setosa 
    ##  3          4.7         3.2          1.3         0.2 setosa 
    ##  4          4.6         3.1          1.5         0.2 setosa 
    ##  5          5           3.6          1.4         0.2 setosa 
    ##  6          5.4         3.9          1.7         0.4 setosa 
    ##  7          4.6         3.4          1.4         0.3 setosa 
    ##  8          5           3.4          1.5         0.2 setosa 
    ##  9          4.4         2.9          1.4         0.2 setosa 
    ## 10          4.9         3.1          1.5         0.1 setosa 
    ## # ... with 140 more rows
…
tibble() does not change the input type (e.g. string –\> factor),
doesn’t change the variable names, and doesn’t create row names.

Columns can also be non-syntatic

``` r
tibble(
  `:)` = 1:100,
  `:(` = 2
)
```

    ## # A tibble: 100 x 2
    ##     `:)`  `:(`
    ##    <int> <dbl>
    ##  1     1     2
    ##  2     2     2
    ##  3     3     2
    ##  4     4     2
    ##  5     5     2
    ##  6     6     2
    ##  7     7     2
    ##  8     8     2
    ##  9     9     2
    ## 10    10     2
    ## # ... with 90 more rows
…
-----

# Tibbles vs data.frame

There are two main differences between tibbles and data frames:

  - **Printing**

Default prints to 10 rows

``` r
as_tibble(iris) %>% print()
```

    ## # A tibble: 150 x 5
    ##    Sepal.Length Sepal.Width Petal.Length Petal.Width Species
    ##           <dbl>       <dbl>        <dbl>       <dbl> <fct>  
    ##  1          5.1         3.5          1.4         0.2 setosa 
    ##  2          4.9         3            1.4         0.2 setosa 
    ##  3          4.7         3.2          1.3         0.2 setosa 
    ##  4          4.6         3.1          1.5         0.2 setosa 
    ##  5          5           3.6          1.4         0.2 setosa 
    ##  6          5.4         3.9          1.7         0.4 setosa 
    ##  7          4.6         3.4          1.4         0.3 setosa 
    ##  8          5           3.4          1.5         0.2 setosa 
    ##  9          4.4         2.9          1.4         0.2 setosa 
    ## 10          4.9         3.1          1.5         0.1 setosa 
    ## # ... with 140 more rows
…
The width = inf option allows to print all columns

``` r
print(as_tibble(mpg), n = 15, width = Inf)
```

    ## # A tibble: 234 x 11
    ##    manufacturer model      displ  year   cyl trans      drv     cty   hwy fl   
    ##    <chr>        <chr>      <dbl> <int> <int> <chr>      <chr> <int> <int> <chr>
    ##  1 audi         a4           1.8  1999     4 auto(l5)   f        18    29 p    
    ##  2 audi         a4           1.8  1999     4 manual(m5) f        21    29 p    
    ##  3 audi         a4           2    2008     4 manual(m6) f        20    31 p    
    ##  4 audi         a4           2    2008     4 auto(av)   f        21    30 p    
    ##  5 audi         a4           2.8  1999     6 auto(l5)   f        16    26 p    
    ##  6 audi         a4           2.8  1999     6 manual(m5) f        18    26 p    
    ##  7 audi         a4           3.1  2008     6 auto(av)   f        18    27 p    
    ##  8 audi         a4 quattro   1.8  1999     4 manual(m5) 4        18    26 p    
    ##  9 audi         a4 quattro   1.8  1999     4 auto(l5)   4        16    25 p    
    ## 10 audi         a4 quattro   2    2008     4 manual(m6) 4        20    28 p    
    ## 11 audi         a4 quattro   2    2008     4 auto(s6)   4        19    27 p    
    ## 12 audi         a4 quattro   2.8  1999     6 auto(l5)   4        15    25 p    
    ## 13 audi         a4 quattro   2.8  1999     6 manual(m5) 4        17    25 p    
    ## 14 audi         a4 quattro   3.1  2008     6 auto(s6)   4        17    25 p    
    ## 15 audi         a4 quattro   3.1  2008     6 manual(m6) 4        15    25 p    
    ##    class  
    ##    <chr>  
    ##  1 compact
    ##  2 compact
    ##  3 compact
    ##  4 compact
    ##  5 compact
    ##  6 compact
    ##  7 compact
    ##  8 compact
    ##  9 compact
    ## 10 compact
    ## 11 compact
    ## 12 compact
    ## 13 compact
    ## 14 compact
    ## 15 compact
    ## # ... with 219 more rows
…
``` r
print(as_tibble(mtcars))
```

    ## # A tibble: 32 x 11
    ##      mpg   cyl  disp    hp  drat    wt  qsec    vs    am  gear  carb
    ##    <dbl> <dbl> <dbl> <dbl> <dbl> <dbl> <dbl> <dbl> <dbl> <dbl> <dbl>
    ##  1  21       6  160    110  3.9   2.62  16.5     0     1     4     4
    ##  2  21       6  160    110  3.9   2.88  17.0     0     1     4     4
    ##  3  22.8     4  108     93  3.85  2.32  18.6     1     1     4     1
    ##  4  21.4     6  258    110  3.08  3.22  19.4     1     0     3     1
    ##  5  18.7     8  360    175  3.15  3.44  17.0     0     0     3     2
    ##  6  18.1     6  225    105  2.76  3.46  20.2     1     0     3     1
    ##  7  14.3     8  360    245  3.21  3.57  15.8     0     0     3     4
    ##  8  24.4     4  147.    62  3.69  3.19  20       1     0     4     2
    ##  9  22.8     4  141.    95  3.92  3.15  22.9     1     0     4     2
    ## 10  19.2     6  168.   123  3.92  3.44  18.3     1     0     4     4
    ## # ... with 22 more rows
…
**3. If you have the name of a variable stored in an object, e.g. var
\<- “mpg”, how can you extract the reference variable from a tibble?**

``` r
var <- "model"

mpg %>% 
  select(var)
```

    ## # A tibble: 234 x 1
    ##    model     
    ##    <chr>     
    ##  1 a4        
    ##  2 a4        
    ##  3 a4        
    ##  4 a4        
    ##  5 a4        
    ##  6 a4        
    ##  7 a4        
    ##  8 a4 quattro
    ##  9 a4 quattro
    ## 10 a4 quattro
    ## # ... with 224 more rows
…
    ##   1   2   3   4   5 
    ## "a" "b" "c" "d" "e"

6.  What option controls how many additional column names are printed at
    the footer of a tibble?

<!-- end list -->

``` r
as_tibble(mpg) %>% print()
```

    ## # A tibble: 234 x 11
    ##    manufacturer model    displ  year   cyl trans   drv     cty   hwy fl    class
    ##    <chr>        <chr>    <dbl> <int> <int> <chr>   <chr> <int> <int> <chr> <chr>
    ##  1 audi         a4         1.8  1999     4 auto(l~ f        18    29 p     comp~
    ##  2 audi         a4         1.8  1999     4 manual~ f        21    29 p     comp~
    ##  3 audi         a4         2    2008     4 manual~ f        20    31 p     comp~
    ##  4 audi         a4         2    2008     4 auto(a~ f        21    30 p     comp~
    ##  5 audi         a4         2.8  1999     6 auto(l~ f        16    26 p     comp~
    ##  6 audi         a4         2.8  1999     6 manual~ f        18    26 p     comp~
    ##  7 audi         a4         3.1  2008     6 auto(a~ f        18    27 p     comp~
    ##  8 audi         a4 quat~   1.8  1999     4 manual~ 4        18    26 p     comp~
    ##  9 audi         a4 quat~   1.8  1999     4 auto(l~ 4        16    25 p     comp~
    ## 10 audi         a4 quat~   2    2008     4 manual~ 4        20    28 p     comp~
    ## # ... with 224 more rows
